<?xml version="1.0" encoding="UTF-8" standalone="no"?>
<!-- Created with Inkscape (http://www.inkscape.org/) -->

<svg
   width="60in"
   height="40in"
   viewBox="0 0 1524 1016"
   version="1.1"
   id="svg5"
   inkscape:version="1.1.1 (3bf5ae0d25, 2021-09-20)"
   sodipodi:docname="christmascard2021.svg"
   inkscape:export-filename="/home/amakthel/pictures/christmas-card-2021/christmascard2021.png"
   inkscape:export-xdpi="87.449997"
   inkscape:export-ydpi="87.449997"
   xmlns:inkscape="http://www.inkscape.org/namespaces/inkscape"
   xmlns:sodipodi="http://sodipodi.sourceforge.net/DTD/sodipodi-0.dtd"
   xmlns:xlink="http://www.w3.org/1999/xlink"
   xmlns="http://www.w3.org/2000/svg"
   xmlns:svg="http://www.w3.org/2000/svg">
  <sodipodi:namedview
     id="namedview7"
     pagecolor="#ffffff"
     bordercolor="#666666"
     borderopacity="1.0"
     inkscape:pageshadow="2"
     inkscape:pageopacity="0.0"
     inkscape:pagecheckerboard="true"
     inkscape:document-units="mm"
     showgrid="false"
     units="in"
     width="30in"
     borderlayer="true"
     inkscape:zoom="0.10882009"
     inkscape:cx="2439.8068"
     inkscape:cy="1001.6533"
     inkscape:window-width="1596"
     inkscape:window-height="861"
     inkscape:window-x="0"
     inkscape:window-y="18"
     inkscape:window-maximized="1"
     inkscape:current-layer="svg5"
     inkscape:snap-global="false"
     inkscape:snap-nodes="true"
     inkscape:snap-page="false" />
  <defs
     id="defs2">
    <rect
       x="657.5965"
       y="29.906988"
       width="1402.73"
       height="189.48244"
       id="rect7067" />
  </defs>
  <g
     inkscape:label="Layer 1"
     inkscape:groupmode="layer"
     id="layer1">
    <image
       width="1524"
       height="1016.0374"
       preserveAspectRatio="none"
       xlink:href="background.png"
       id="image77"
       x="-3.469447e-18"
       y="0" />
    <image
       width="84.378899"
       height="84.378899"
       preserveAspectRatio="none"
       xlink:href="lily.jpg"
       id="image5930"
       x="65.945488"
       y="735.75842" />
  </g>
  <text
     xml:space="preserve"
     transform="matrix(0.42865029,0,0,0.42865029,150.07916,2.2985455)"
     id="text7065"
     style="font-size:96px;line-height:1;font-family:sans-serif;text-align:center;white-space:pre;shape-inside:url(#rect7067);fill:#000000"
     x="687.51562"
     y="0"><tspan
       x="826.29688"
       y="102.84375"
       id="tspan51748">Merry Christmas 2021
</tspan><tspan
       x="662.91406"
       y="198.84375"
       id="tspan51750">to ACN -- Thanks for posting!</tspan></text>
  <image
     width="115.07191"
     height="89.986237"
     preserveAspectRatio="none"
     xlink:href="adam.png"
     id="image4022"
     x="12.823563"
     y="346.46866" />
  <image
     width="73.9785"
     height="112.31555"
     preserveAspectRatio="none"
     xlink:href="alexanderrm.png"
     id="image4078"
     x="1090.9531"
     y="23.600992" />
  <image
     width="106.33849"
     height="138.82309"
     preserveAspectRatio="none"
     xlink:href="amakthel.png"
     id="image4134"
     x="251.70096"
     y="748.66608" />
  <image
     width="100.51604"
     height="100.51604"
     preserveAspectRatio="none"
     xlink:href="andkat.png"
     id="image4190"
     x="1399.0238"
     y="652.24707" />
  <image
     width="100.75834"
     height="100.75834"
     preserveAspectRatio="none"
     xlink:href="anonymous.png"
     id="image4246"
     x="146.76399"
     y="903.84943" />
  <image
     width="96.131599"
     height="72.098686"
     preserveAspectRatio="none"
     xlink:href="anthropicprincipal.jpg"
     id="image4330"
     x="1417.7997"
     y="924.68097" />
  <image
     width="130.99551"
     height="98.246643"
     preserveAspectRatio="none"
     xlink:href="Audreycious.png"
     id="image4400"
     x="162.55711"
     y="300.71545" />
  <image
     width="122.06677"
     height="91.550079"
     preserveAspectRatio="none"
     xlink:href="axolotl.png"
     id="image4456"
     x="19.039095"
     y="23.934458" />
  <image
     width="94.773117"
     height="98.92984"
     preserveAspectRatio="none"
     xlink:href="beatrice-bernardo1.png"
     id="image4648"
     x="149.35727"
     y="59.011948" />
  <image
     width="100.51394"
     height="80.445755"
     preserveAspectRatio="none"
     xlink:href="beatrice-bernardo2.png"
     id="image4704"
     x="16.400217"
     y="451.98367" />
  <image
     width="125.25049"
     height="83.50032"
     preserveAspectRatio="none"
     xlink:href="benjamin.png"
     id="image4760"
     x="12.788288"
     y="236.15013" />
  <image
     width="122.89436"
     height="67.138687"
     preserveAspectRatio="none"
     xlink:href="bizarroland.png"
     id="image4816"
     x="275.49457"
     y="68.225334" />
  <image
     width="134.10902"
     height="75.436325"
     preserveAspectRatio="none"
     xlink:href="blubberquark.png"
     id="image4872"
     x="10.908147"
     y="826.45117" />
  <image
     width="83.335938"
     height="83.335938"
     preserveAspectRatio="none"
     xlink:href="celestia.jpg"
     id="image4942"
     x="1299.5242"
     y="593.9458" />
  <image
     width="97.65934"
     height="76.293243"
     preserveAspectRatio="none"
     xlink:href="conifer.png"
     id="image5016"
     x="29.779076"
     y="550.70386" />
  <image
     width="81.511261"
     height="114.39363"
     preserveAspectRatio="none"
     xlink:href="dfp.png"
     id="image5072"
     x="141.50121"
     y="178.1893" />
  <image
     width="120.27374"
     height="88.919281"
     preserveAspectRatio="none"
     xlink:href="ditty.png"
     id="image5142"
     x="263.9014"
     y="403.20322" />
  <image
     width="77.65654"
     height="116.48482"
     preserveAspectRatio="none"
     xlink:href="eli.png"
     id="image5212"
     x="1416.0637"
     y="787.13373" />
  <image
     width="112.78902"
     height="100.71614"
     preserveAspectRatio="none"
     xlink:href="erin.png"
     id="image5268"
     x="956.24615"
     y="117.70673" />
  <image
     width="124.67495"
     height="93.485847"
     preserveAspectRatio="none"
     xlink:href="felix.png"
     id="image5366"
     x="1389.9221"
     y="174.17334" />
  <image
     width="103.0784"
     height="68.718925"
     preserveAspectRatio="none"
     xlink:href="galateangemmate.png"
     id="image5452"
     x="1402.8843"
     y="290.95999" />
  <image
     width="75.289703"
     height="109.6554"
     preserveAspectRatio="none"
     xlink:href="hazzard.png"
     id="image5508"
     x="7.7370753"
     y="632.01086" />
  <image
     width="88.448463"
     height="91.917023"
     preserveAspectRatio="none"
     xlink:href="jasper.png"
     id="image5578"
     x="1077.953"
     y="886.07172" />
  <image
     width="78.142113"
     height="97.990204"
     preserveAspectRatio="none"
     xlink:href="knapi.jpg"
     id="image5634"
     x="1190.3789"
     y="883.37744" />
  <image
     width="113.58784"
     height="85.137001"
     preserveAspectRatio="none"
     xlink:href="lex.jpg"
     id="image5746"
     x="21.674353"
     y="130.68892" />
  <image
     width="115.01459"
     height="84.445381"
     preserveAspectRatio="none"
     xlink:href="lexande.jpg"
     id="image5802"
     x="323.18561"
     y="299.11316" />
  <image
     width="131.71613"
     height="89.331123"
     preserveAspectRatio="none"
     xlink:href="lotuscobra.jpg"
     id="image6000"
     x="1234.5437"
     y="192.26996" />
  <image
     width="81.031929"
     height="144.05678"
     preserveAspectRatio="none"
     xlink:href="luminesce.jpg"
     id="image6056"
     x="161.94357"
     y="748.77051" />
  <image
     width="86.039238"
     height="119.60065"
     preserveAspectRatio="none"
     xlink:href="martyr.png"
     id="image6112"
     x="348.27737"
     y="159.47049" />
  <image
     width="101.27544"
     height="101.27544"
     preserveAspectRatio="none"
     xlink:href="mqp.png"
     id="image6168"
     x="290.96475"
     y="516.27191" />
  <image
     width="104.84655"
     height="96.458832"
     preserveAspectRatio="none"
     xlink:href="mrfuzzypants.png"
     id="image6224"
     x="235.2164"
     y="177.63936" />
  <image
     width="73.229469"
     height="129.61617"
     preserveAspectRatio="none"
     xlink:href="nightcore-nasheed.png"
     id="image6280"
     x="1421.4049"
     y="368.86935" />
  <image
     width="129.90172"
     height="93.420609"
     preserveAspectRatio="none"
     xlink:href="nyuu.png"
     id="image6336"
     x="1157.5314"
     y="673.44336" />
  <image
     width="130.11061"
     height="86.740417"
     preserveAspectRatio="none"
     xlink:href="probot.png"
     id="image6406"
     x="927.5813"
     y="911.08337" />
  <image
     width="77.132324"
     height="101.91154"
     preserveAspectRatio="none"
     xlink:href="prox.png"
     id="image6462"
     x="1416.7029"
     y="517.95233" />
  <image
     width="102.15808"
     height="98.211067"
     preserveAspectRatio="none"
     xlink:href="satsuma.png"
     id="image6518"
     x="1296.6143"
     y="893.16644" />
  <image
     width="125.62199"
     height="94.216484"
     preserveAspectRatio="none"
     xlink:href="schema.jpg"
     id="image6574"
     x="1273.799"
     y="771.28284" />
  <image
     width="109.56497"
     height="82.173721"
     preserveAspectRatio="none"
     xlink:href="shambibble.png"
     id="image6630"
     x="157.79704"
     y="649.33923" />
  <image
     width="100.69471"
     height="82.321739"
     preserveAspectRatio="none"
     xlink:href="shetlandmullin.png"
     id="image6686"
     x="24.484621"
     y="914.34497" />
  <image
     width="80.168747"
     height="132.55624"
     preserveAspectRatio="none"
     xlink:href="skew.png"
     id="image6742"
     x="457.10806"
     y="112.24416" />
  <image
     width="120.47152"
     height="136.14476"
     preserveAspectRatio="none"
     xlink:href="sock.jpg"
     id="image6798"
     x="1086.6816"
     y="172.48772" />
  <image
     width="102.7147"
     height="109.32937"
     preserveAspectRatio="none"
     xlink:href="sokka.png"
     id="image6854"
     x="1282.2687"
     y="463.55731" />
  <image
     width="98.785011"
     height="98.785011"
     preserveAspectRatio="none"
     xlink:href="teemochu.png"
     id="image6910"
     x="261.14499"
     y="904.12183" />
  <image
     width="87.028908"
     height="116.18982"
     preserveAspectRatio="none"
     xlink:href="thegirlreadingthis.png"
     id="image6980"
     x="397.59213"
     y="766.59967" />
  <image
     width="117.99645"
     height="79.179565"
     preserveAspectRatio="none"
     xlink:href="thorin.png"
     id="image7036"
     x="516.46753"
     y="842.25043" />
  <image
     width="113.72452"
     height="84.640488"
     preserveAspectRatio="none"
     xlink:href="tomoko.png"
     id="image7092"
     x="1068.4264"
     y="581.52295" />
  <image
     width="89.759926"
     height="142.40395"
     preserveAspectRatio="none"
     xlink:href="tremor.jpg"
     id="image7190"
     x="1186.5077"
     y="18.016846" />
  <image
     width="138.40059"
     height="92.314613"
     preserveAspectRatio="none"
     xlink:href="tricky.jpeg"
     id="image7246"
     x="1108.167"
     y="461.25613" />
  <image
     width="81.725273"
     height="98.148529"
     preserveAspectRatio="none"
     xlink:href="tuxcat.png"
     id="image7302"
     x="148.01556"
     y="435.10309" />
  <image
     width="122.45884"
     height="73.475304"
     preserveAspectRatio="none"
     xlink:href="tyuusyuukoobungi.png"
     id="image7358"
     x="1108.5867"
     y="794.36804"
     inkscape:transform-center-x="1243.6831"
     inkscape:transform-center-y="-38.456955" />
  <image
     width="112.95869"
     height="84.565552"
     preserveAspectRatio="none"
     xlink:href="upskuttle.png"
     id="image7414"
     x="157.20923"
     y="551.89447" />
  <image
     width="114.62373"
     height="96.957703"
     preserveAspectRatio="none"
     xlink:href="uselesscommon.png"
     id="image7470"
     x="806.75824"
     y="870.79297" />
  <image
     width="91.824226"
     height="122.4323"
     preserveAspectRatio="none"
     xlink:href="vara2096.png"
     id="image7596"
     x="677.40192"
     y="878.2785" />
  <image
     width="143.88074"
     height="92.339043"
     preserveAspectRatio="none"
     xlink:href="voxette.png"
     id="image7652"
     x="286.32388"
     y="647.47467" />
  <image
     width="126.37547"
     height="84.039688"
     preserveAspectRatio="none"
     xlink:href="vulture.png"
     id="image7708"
     x="386.16397"
     y="909.2478" />
  <image
     width="110.22879"
     height="110.22879"
     preserveAspectRatio="none"
     xlink:href="x.png"
     id="image7764"
     x="1090.3259"
     y="337.5108" />
  <image
     width="141.7832"
     height="85.294388"
     preserveAspectRatio="none"
     xlink:href="youzicha.png"
     id="image7820"
     x="1005.7938"
     y="682.0047" />
  <image
     width="149.94698"
     height="100.61441"
     preserveAspectRatio="none"
     xlink:href="zenbu.png"
     id="image7876"
     x="1224.3419"
     y="312.2157" />
  <image
     width="122.08279"
     height="114.74734"
     preserveAspectRatio="none"
     xlink:href="zim.png"
     id="image7932"
     x="958.26526"
     y="782.97833" />
  <image
     width="113.411"
     height="138.65363"
     preserveAspectRatio="none"
     xlink:href="lengthymammalian.jpg"
     id="image8061"
     x="1398.9301"
     y="16.264788" />
  <image
     width="85.589722"
     height="122.47112"
     preserveAspectRatio="none"
     xlink:href="kothar-nameedit.png"
     id="image51673"
     x="1298.3969"
     y="17.807199" />
</svg>
